No,IDNo,"Student Name",RawScore
1.,2012317,"Berenguer-Testa Jacobo Z.",
2.,2012318,"Bhatia Ishaan ",
3.,2012319,"Bitanga Tiger Christian L.",
4.,2013400,"Borromeo Emilio Emmanuel G.",
5.,2012320,"Bramley Christian Y.",
6.,2013362,"Camahort Juan Martin T.",
7.,2014441,"Dizon John Benedict L.",
8.,2012325,"Esquivel Vasco Alfonso T.",
9.,2014442,"Esteban Jaime José N.",
10.,2012326,"Gozo Tomas Franco F.",
11.,2014493,"Harper Luke M.",
12.,2012327,"Hess James Christian L.",
13.,2018030,"Isip-Manapat Luis E.",
14.,2012332,"Lee Aaron Joseph B S.",
15.,2011262,"Lichauco Eduardo Lorenzo F",
16.,2015552,"Lizo Carmelo Andrei C.",
17.,2017874,"Madarang Rhett Levin Choa",
18.,2012337,"Reyes Maxwell James U.",
19.,2012338,"Santos Lorenzo Patrick G.",
20.,2016667,"See Tyler Henry S.",
21.,2014503,"Sevilla Tomas Antonio A.",
22.,2012339,"Shino Yuichi Shane R.",
23.,2015553,"Villarojo Marco Miguel M.",
24.,2014444,"Yap Ethan Matthew B.",
25.,2014445,"Ynson Nathan Robert Y.",
